// Jest Snapshot v1, https://goo.gl/fbAQLP

exports[`Translator renders correctly 1`] = `
<div
  className="i18next-tui-tool"
>
  <div
    className="i18next-tui-toolbar"
  >
    <NamespaceSwitch
      current="App"
      list={
        Array [
          "App",
          "Auth",
        ]
      }
      onChange={[Function]}
    />
    <DownloadButtonList
      onDownload={[Function]}
      valueList={
        Array [
          "en",
          "de",
          "ru",
        ]
      }
    />
    <ToolbarItem
      label="Display empty"
    >
      <input
        checked={false}
        className="filter-empty"
        onChange={[Function]}
        type="checkbox"
      />
    </ToolbarItem>
  </div>
  <Table
    changed={Set {}}
    defaultEmptyPlaceholder="__STRING_NOT_TRANSLATED__"
    filterEmpty={false}
    localeList={
      Array [
        Object {
          "lang": "en",
          "translations": Object {
            "key": "Key",
            "value": "Value",
          },
        },
        Object {
          "lang": "de",
          "translations": Object {
            "key": "__STRING_NOT_TRANSLATED__",
            "value": "Wert",
          },
        },
        Object {
          "lang": "ru",
          "translations": Object {
            "key": "Ключ",
            "value": "",
          },
        },
      ]
    }
    masterLanguage="en"
    onSelect={[Function]}
    selectedKey="key"
  />
  <EditorWrapper
    currentLanguage="en"
    languageList={
      Array [
        "en",
        "de",
        "ru",
      ]
    }
    onChangeLanguage={[Function]}
  >
    <Editor
      onChange={[Function]}
      translationKey="key"
      value="Key"
    />
  </EditorWrapper>
</div>
`;

exports[`Translator renders correctly for empty namespaces 1`] = `
<div
  className="i18next-tui-tool"
>
  <div
    className="i18next-tui-toolbar"
  >
    <NamespaceSwitch
      current="App"
      list={Array []}
      onChange={[Function]}
    />
    <DownloadButtonList
      onDownload={[Function]}
      valueList={
        Array [
          "en",
          "de",
          "ru",
        ]
      }
    />
    <ToolbarItem
      label="Display empty"
    >
      <input
        checked={false}
        className="filter-empty"
        onChange={[Function]}
        type="checkbox"
      />
    </ToolbarItem>
  </div>
  <Table
    changed={Set {}}
    defaultEmptyPlaceholder="__STRING_NOT_TRANSLATED__"
    filterEmpty={false}
    localeList={
      Array [
        Object {
          "lang": "en",
          "translations": Object {
            "key": "Key",
            "value": "Value",
          },
        },
        Object {
          "lang": "de",
          "translations": Object {
            "key": "__STRING_NOT_TRANSLATED__",
            "value": "Wert",
          },
        },
        Object {
          "lang": "ru",
          "translations": Object {
            "key": "Ключ",
            "value": "",
          },
        },
      ]
    }
    masterLanguage="en"
    onSelect={[Function]}
    selectedKey="key"
  />
  <EditorWrapper
    currentLanguage="en"
    languageList={
      Array [
        "en",
        "de",
        "ru",
      ]
    }
    onChangeLanguage={[Function]}
  >
    <Editor
      onChange={[Function]}
      translationKey="key"
      value="Key"
    />
  </EditorWrapper>
</div>
`;
