// Jest Snapshot v1, https://goo.gl/fbAQLP

exports[`DownloadButtonList renders correctly 1`] = `
<DownloadButtonList
  onDownload={[MockFunction]}
  valueList={
    Array [
      "en",
      "de",
      "fr",
    ]
  }
>
  <ToolbarItem
    label="Download JSON"
  >
    <div
      className="toolbar-item"
    >
      Download JSON
      :
      <div
        className="locales"
      >
        <DownloadButton
          key="en"
          onClick={[MockFunction]}
          value="en"
        >
          <button
            className="default"
            onClick={[Function]}
          >
            en
          </button>
        </DownloadButton>
        <DownloadButton
          key="de"
          onClick={[MockFunction]}
          value="de"
        >
          <button
            className="default"
            onClick={[Function]}
          >
            de
          </button>
        </DownloadButton>
        <DownloadButton
          key="fr"
          onClick={[MockFunction]}
          value="fr"
        >
          <button
            className="default"
            onClick={[Function]}
          >
            fr
          </button>
        </DownloadButton>
      </div>
    </div>
  </ToolbarItem>
</DownloadButtonList>
`;
