// Jest Snapshot v1, https://goo.gl/fbAQLP

exports[`Editor renders correctly 1`] = `
<Editor
  onChange={[MockFunction]}
  translationKey="key"
  value="value"
>
  <textarea
    name="key"
    onChange={[Function]}
    value="value"
  />
</Editor>
`;
